C:\Users\admin\eclipse-workspace\spring_sample_xml\src\main\java\com\pluralsight\model\Customer.java
C:\Users\admin\eclipse-workspace\spring_sample_xml\src\main\java\com\pluralsight\service\CustomerServiceImpl.java
C:\Users\admin\eclipse-workspace\spring_sample_xml\src\main\java\com\pluralsight\repository\CustomerRepository.java
C:\Users\admin\eclipse-workspace\spring_sample_xml\src\main\java\com\pluralsight\service\CustomerService.java
C:\Users\admin\eclipse-workspace\spring_sample_xml\src\main\java\com\pluralsight\repository\HibernateCustomerRepositoryImpl.java
C:\Users\admin\eclipse-workspace\spring_sample_xml\src\main\java\Application.java
